module gallery-api

go 1.13

require (
	github.com/gin-contrib/cors v1.3.1
	github.com/gin-gonic/gin v1.6.3
	github.com/jinzhu/gorm v1.9.12
	github.com/joho/godotenv v1.3.0
	github.com/onsi/gomega v1.10.1 // indirect
	github.com/opencontainers/runc v0.1.1 // indirect
	github.com/sirupsen/logrus v1.6.0
	golang.org/x/crypto v0.0.0-20191205180655-e7c4368fe9dd
)
